{
  "staffs": [
    {
      "id": "0001",
      "name": "Trần Chí Công 1",
      "img": "cartoon02.png",
      "phone": "+84980009999",
      "branch": "Tanca Võ Thị Sáu",
      "department": "Giám đốc",
      "position": "Quản lý Chi Nhánh",
      "status": false
    },
    {
      "id": "0002",
      "name": "Hà Tuấn Hoàng",
      "img": "cartoon01.png",
      "phone": "+84980009999",
      "branch": "Tanca trụ sở",
      "department": "Kinh doanh",
      "position": "Quản lý Chi Nhánh",
      "status": false
    },
    {
      "id": "0004",
      "name": "Trần Nhật Cường",
      "img": "cartoon05.jpeg",
      "phone": "+84980009999",
      "branch": "Tanca trụ sở",
      "department": "Bếp",
      "position": "Nhân viên",
      "status": true
    },
    {
      "id": "0005",
      "name": "Lê Như Trang",
      "img": "0001.jpeg",
      "phone": "+84980009999",
      "branch": "Tanca trụ sở",
      "department": "Pha chế",
      "position": "Nhân viên",
      "status": true
    },
    {
      "id": "0006",
      "name": "Huỳnh Tiểu Nhiên",
      "img": "0001.jpeg",
      "phone": "+84980009999",
      "branch": "Tanca trụ sở",
      "department": "Giám đốc",
      "position": "Quản lý",
      "status": true
    },
    {
      "id": "0007",
      "name": "Trần Chí Công",
      "img": "0001.jpeg",
      "phone": "+84980009999",
      "branch": "Tanca trụ sở",
      "department": "Giám đốc",
      "position": "Quản lý",
      "status": true
    },
    {
      "img": "cartoon04.jpg",
      "id": "Xu_hsEU",
      "name": "SASSDDS",
      "phone": "77777777",
      "branch": "Tanca Võ Thị Sáu",
      "department": "Kinh doanh",
      "position": "Nhân viên"
    },
    {
      "img": "",
      "id": "BDIJsh-",
      "name": "new",
      "phone": "888888888",
      "branch": "Tanca trụ sở",
      "department": "Kinh doanh",
      "position": "Quản lý Chi Nhánh",
      "status": true
    },
    {
      "img": "cartoon03.jpg",
      "id": "GC2POdB",
      "name": "kimmm",
      "phone": "232352525",
      "branch": "Tanca Võ Thị Sáu",
      "department": "Giám đốc",
      "position": "Nhân viên",
      "status": true
    },
    {
      "img": "cartoon03.jpg",
      "id": "eZGOCAD",
      "name": "new staff",
      "phone": "dfdsfsdf",
      "branch": "Tanca Võ Thị Sáu",
      "department": "Kinh doanh",
      "position": "Quản lý Chi Nhánh",
      "status": true,
      "email": "kim@yahoo.com",
      "pass": "123456",
      "confirmPass": "123456",
      "startDate": "24/04/2019"
    },
    {
      "img": "cartoon03.jpg",
      "id": "0VSKtqr",
      "name": "new staff",
      "phone": "dfdsfsdf",
      "branch": "Tanca Võ Thị Sáu",
      "department": "Kinh doanh",
      "position": "Quản lý Chi Nhánh",
      "status": true,
      "email": "kim@yahoo.com",
      "pass": "123456",
      "confirmPass": "123456",
      "startDate": "24/04/2019"
    },
    {
      "img": "cartoon03.jpg",
      "id": "l20YKou",
      "name": "new staff",
      "phone": "dfdsfsdf",
      "branch": "Tanca Võ Thị Sáu",
      "department": "Kinh doanh",
      "position": "Quản lý Chi Nhánh",
      "status": true,
      "email": "kim@yahoo.com",
      "pass": "123456",
      "confirmPass": "123456",
      "startDate": "24/04/2019"
    },
    {
      "img": "cartoon03.jpg",
      "id": "S5PQ2_L",
      "name": "new staff1234",
      "phone": "dfdsfsdf",
      "branch": "Tanca Võ Thị Sáu",
      "department": "Kinh doanh",
      "position": "Quản lý Chi Nhánh",
      "status": true,
      "email": "kim@yahoo.com",
      "pass": "123456",
      "confirmPass": "123456",
      "startDate": "24/04/2019"
    },
    {
      "img": "",
      "id": "YFkH_6G",
      "name": "Kungsörs Båtvarv",
      "phone": "022710132",
      "branch": "Tanca trụ sở",
      "department": "Pha chế",
      "position": "Nhân viên",
      "status": true,
      "email": "ds@kbvarv.se",
      "pass": "tfff",
      "confirmPass": "tfff",
      "startDate": "24/04/2019"
    },
    {
      "img": "",
      "id": "8NFhyRa",
      "name": "Kungsörs Båtvarv",
      "phone": "022710132",
      "branch": "Tanca trụ sở",
      "department": "Pha chế",
      "position": "Nhân viên",
      "status": true,
      "email": "ds@kbvarv.se",
      "pass": "tfff",
      "confirmPass": "tfff",
      "startDate": "24/04/2019"
    },
    {
      "img": "",
      "id": "67U4H26",
      "name": "Kungsörs Båtvarv",
      "phone": "022710132",
      "branch": "Tanca trụ sở",
      "department": "Pha chế",
      "position": "Nhân viên",
      "status": true,
      "email": "ds@kbvarv.se",
      "pass": "tfff",
      "confirmPass": "tfff",
      "startDate": "24/04/2019"
    },
    {
      "img": "",
      "id": "NPVsjDe",
      "name": "Kungsörs Båtvarv",
      "phone": "022710132",
      "branch": "Tanca trụ sở",
      "department": "Pha chế",
      "position": "Nhân viên",
      "status": true,
      "email": "ds@kbvarv.se",
      "pass": "tfff",
      "confirmPass": "tfff",
      "startDate": "24/04/2019"
    },
    {
      "img": "",
      "id": "yXc5nf2",
      "name": "Kungsörs Båtvarv",
      "phone": "022710132",
      "branch": "Tanca trụ sở",
      "department": "Pha chế",
      "position": "Nhân viên",
      "status": true,
      "email": "ds@kbvarv.se",
      "pass": "tfff",
      "confirmPass": "tfff",
      "startDate": "24/04/2019"
    },
    {
      "img": "",
      "id": "qjTBMhm",
      "name": "Donsö Marin AB",
      "phone": "031972343",
      "branch": "Tanca trụ sở",
      "department": "Giám đốc",
      "position": "Nhân viên",
      "status": true,
      "email": "donsomarin@telia.se",
      "pass": "123456",
      "confirmPass": "123456",
      "startDate": "24/04/2019"
    },
    {
      "img": "",
      "id": "Nq4fk2-",
      "name": "adsfaf",
      "phone": "1341413414",
      "branch": "Tanca Võ Thị Sáu",
      "department": "Giám đốc",
      "position": "Nhân viên",
      "status": true,
      "email": "adf@yahoo.com",
      "pass": "fT7Xw0p7oRmyz6E9G4",
      "confirmPass": "fT7Xw0p7oRmyz6E9G4",
      "startDate": "24/04/2019"
    },
    {
      "img": "",
      "id": "820M08Y",
      "name": "Kungsörs Båtvarv",
      "phone": "022710132",
      "branch": "Tanca Võ Thị Sáu",
      "department": "Kinh doanh",
      "position": "Nhân viên",
      "status": true,
      "email": "ds@kbvarv.se",
      "pass": "qewrqr",
      "confirmPass": "qewrqr",
      "startDate": "24/04/2019"
    },
    {
      "img": "cartoon05.jpeg",
      "id": "KGr1z0n",
      "name": "Kungsörs Båtvarv",
      "phone": "022710132",
      "branch": "Tanca Võ Thị Sáu",
      "department": "Kinh doanh",
      "position": "Nhân viên",
      "status": true,
      "email": "ds@kbvarv.se",
      "pass": "123",
      "confirmPass": "123",
      "startDate": "24/04/2019"
    },
    {
      "img": "",
      "id": "DuHuew4",
      "name": "Donsö Marin AB",
      "phone": "031972343",
      "branch": "Tanca Võ Thị Sáu",
      "department": "Kinh doanh",
      "position": "Nhân viên",
      "status": true,
      "email": "donsomarin@telia.se",
      "pass": "123",
      "confirmPass": "123",
      "startDate": "24/04/2019"
    }
  ]
}